{
    "format_version" : "1.14.0",
    "sound_definitions" : {
        "zelda.packInfo" : {
            "category" : "ui"
            "sounds" : [
                "sounds/zelda/misc/packInfo"
            ]
        },
        "sheikah.terminal" : {
            "category" : "ui"
            "sounds" : [
                "sounds/zelda/sheikah/terminal/beep"
            ]
        },
        "sheikah.slate.activate" : {
            "category" : "ui"
            "sounds" : [
                "sounds/zelda/sheikah/slate/activate"
            ]
        },
        "sheikah.slate.deactivate" : {
            "category" : "ui"
            "sounds" : [
                "sounds/zelda/sheikah/slate/deactivate"
            ]
        }
    }
}
